Personal_Projects/Digital Circuit Designs/midterm/debounce.vcd
$date
   Mon Mar  4 09:37:44 2024
$end
$version
  2020.2
$end
$timescale
  1ps
$end
$scope module testbench $end
$scope module DUT $end
$var wire 1 ! clk $end
$var wire 1 " btn $end
$var reg 1 # btn_db $end
$var reg 1 $ rst_l $end
$var reg 2 % state [1:0] $end
$var reg 1 & clear $end
$var wire 1 ' t $end
$upscope $end
$upscope $end
$enddefinitions $end
#0
$dumpvars
0!
0"
0#
1$
b0 %
1&
0'
$end
#10000
1!
0#
1&
#20000
0!
#30000
1!
0#
1&
#40000
0!
#50000
1!
0#
1&
#60000
0!
#70000
1!
0#
1&
#80000
0!
#90000
1!
0#
1&
#100000
0!
#110000
1!
0#
1&
#120000
0!
#130000
1!
0#
1&
#140000
0!
#150000
1!
0#
1&
#160000
0!
#170000
1!
0#
1&
#180000
0!
#190000
1!
0#
1&
#200000
0!
#210000
1!
1"
0#
1&
#220000
0!
#230000
1!
0#
b1 %
0&
#240000
0!
#250000
1!
b1 %
0&
#260000
0!
#270000
1!
b1 %
0&
#280000
0!
#290000
1!
b1 %
0&
#300000
0!
#310000
1!
b1 %
0&
#320000
0!
#330000
1!
b1 %
0&
#340000
0!
#350000
1!
b1 %
0&
#360000
0!
#370000
1!
b1 %
0&
#380000
0!
#390000
1!
b1 %
0&
#400000
0!
#410000
1!
0"
b1 %
0&
#420000
0!
#430000
1!
b0 %
1&
#440000
0!
#450000
1!
0#
1&
#460000
0!
#470000
1!
0#
1&
#480000
0!
#490000
1!
1"
0#
1&
#500000
0!
#510000
1!
0#
b1 %
0&
#520000
0!
#530000
1!
b1 %
0&
#540000
0!
#550000
1!
b1 %
0&
#560000
0!
#570000
1!
b1 %
0&
#580000
0!
#590000
1!
b1 %
0&
#600000
0!
#610000
1!
0"
b1 %
0&
#620000
0!
#630000
1!
1"
b0 %
1&
#640000
0!
#650000
1!
0#
b1 %
0&
#660000
0!
#670000
1!
b1 %
0&
#680000
0!
#690000
1!
b1 %
0&
#700000
0!
#710000
1!
b1 %
0&
#720000
0!
#730000
1!
b1 %
0&
#740000
0!
#750000
1!
b1 %
0&
#760000
0!
#770000
1!
b1 %
0&
#780000
0!
#790000
1!
b1 %
0&
#800000
0!
#810000
1!
b1 %
0&
#820000
0!
#830000
1!
b1 %
0&
#840000
0!
#850000
1!
b1 %
0&
#860000
0!
#870000
1!
b1 %
0&
#880000
0!
#890000
1!
b1 %
0&
#900000
0!
#910000
1!
b1 %
0&
#920000
0!
#930000
1!
b1 %
0&
#940000
0!
#950000
1!
b1 %
0&
#960000
0!
#970000
1!
b1 %
0&
#980000
0!
#990000
1!
b1 %
0&
#1000000
0!
#1010000
1!
b1 %
0&
#1020000
0!
#1030000
1!
b1 %
0&
#1040000
0!
#1050000
1!
b1 %
0&
#1060000
0!
#1070000
1!
b1 %
0&
#1080000
0!
#1090000
1!
b1 %
0&
#1100000
0!
#1110000
1!
b1 %
0&
#1120000
0!
#1130000
1!
b1 %
0&
#1140000
0!
#1150000
1!
b1 %
0&
#1160000
0!
#1170000
1!
b1 %
0&
#1180000
0!
#1190000
1!
b1 %
0&
#1200000
0!
#1210000
1!
b1 %
0&
#1220000
0!
#1230000
1!
b1 %
0&
#1240000
0!
#1250000
1!
b1 %
0&
#1260000
0!
#1270000
1!
b1 %
0&
#1280000
0!
#1290000
1!
b1 %
0&
#1300000
0!
#1310000
1!
b1 %
0&
#1320000
0!
#1330000
1!
b1 %
0&
#1340000
0!
#1350000
1!
b1 %
0&
#1360000
0!
#1370000
1!
b1 %
0&
#1380000
0!
#1390000
1!
b1 %
0&
#1400000
0!
#1410000
1!
b1 %
0&
#1420000
0!
#1430000
1!
b1 %
0&
#1440000
0!
#1450000
1!
b1 %
0&
#1460000
0!
#1470000
1!
b1 %
0&
#1480000
0!
#1490000
1!
b1 %
0&
#1500000
0!
#1510000
1!
b1 %
0&
#1520000
0!
#1530000
1!
b1 %
0&
#1540000
0!
#1550000
1!
b1 %
0&
#1560000
0!
#1570000
1!
b1 %
0&
#1580000
0!
#1590000
1!
b1 %
0&
#1600000
0!
#1610000
1!
b1 %
0&
#1620000
0!
#1630000
1!
b1 %
0&
#1640000
0!
#1650000
1!
b1 %
0&
#1660000
0!
#1670000
1!
b1 %
0&
#1680000
0!
#1690000
1!
b1 %
0&
#1700000
0!
#1710000
1!
b1 %
0&
#1720000
0!
#1730000
1!
b1 %
0&
#1740000
0!
#1750000
1!
b1 %
0&
#1760000
0!
#1770000
1!
b1 %
0&
#1780000
0!
#1790000
1!
b1 %
0&
#1800000
0!
#1810000
1!
b1 %
0&
#1820000
0!
#1830000
1!
b1 %
0&
#1840000
0!
#1850000
1!
b1 %
0&
#1860000
0!
#1870000
1!
b1 %
0&
#1880000
0!
#1890000
1!
b1 %
0&
#1900000
0!
#1910000
1!
b1 %
0&
#1920000
0!
#1930000
1!
b1 %
0&
#1940000
0!
#1950000
1!
b1 %
0&
#1960000
0!
#1970000
1!
b1 %
0&
#1980000
0!
#1990000
1!
b1 %
0&
#2000000
0!
#2010000
1!
b1 %
0&
#2020000
0!
#2030000
1!
b1 %
0&
#2040000
0!
#2050000
1!
b1 %
0&
#2060000
0!
#2070000
1!
b1 %
0&
#2080000
0!
#2090000
1!
b1 %
0&
#2100000
0!
#2110000
1!
b1 %
0&
#2120000
0!
#2130000
1!
b1 %
0&
#2140000
0!
#2150000
1!
b1 %
0&
#2160000
0!
#2170000
1!
b1 %
0&
#2180000
0!
#2190000
1!
b1 %
0&
#2200000
0!
#2210000
1!
b1 %
0&
#2220000
0!
#2230000
1!
b1 %
0&
#2240000
0!
#2250000
1!
b1 %
0&
#2260000
0!
#2270000
1!
b1 %
0&
#2280000
0!
#2290000
1!
b1 %
0&
#2300000
0!
#2310000
1!
b1 %
0&
#2320000
0!
#2330000
1!
b1 %
0&
#2340000
0!
#2350000
1!
b1 %
0&
#2360000
0!
#2370000
1!
b1 %
0&
#2380000
0!
#2390000
1!
b1 %
0&
#2400000
0!
#2410000
1!
b1 %
0&
#2420000
0!
#2430000
1!
b1 %
0&
#2440000
0!
#2450000
1!
b1 %
0&
#2460000
0!
#2470000
1!
b1 %
0&
#2480000
0!
#2490000
1!
b1 %
0&
#2500000
0!
#2510000
1!
b1 %
0&
#2520000
0!
#2530000
1!
b1 %
0&
#2540000
0!
#2550000
1!
b1 %
0&
#2560000
0!
#2570000
1!
b1 %
0&
#2580000
0!
#2590000
1!
b1 %
0&
#2600000
0!
#2610000
1!
b1 %
0&
#2620000
0!
#2630000
1!
b1 %
0&
#2640000
0!
#2650000
1!
b1 %
0&
#2660000
0!
#2670000
1!
b1 %
0&
1'
#2680000
0!
#2690000
1!
b1 %
0&
#2700000
0!
#2710000
1!
b1 %
0&
#2720000
0!
#2730000
1!
b1 %
0&
#2740000
0!
#2750000
1!
b1 %
0&
#2760000
0!
#2770000
1!
b1 %
0&
#2780000
0!
#2790000
1!
b1 %
0&
#2800000
0!
#2810000
1!
b1 %
0&
#2820000
0!
#2830000
1!
b1 %
0&
#2840000
0!
#2850000
1!
b1 %
0&
#2860000
0!
#2870000
1!
b1 %
0&
#2880000
0!
#2890000
1!
b1 %
0&
#2900000
0!
#2910000
1!
b1 %
0&
#2920000
0!
#2930000
1!
b1 %
0&
#2940000
0!
#2950000
1!
b1 %
0&
#2960000
0!
#2970000
1!
b1 %
0&
#2980000
0!
#2990000
1!
b1 %
0&
#3000000
0!
#3010000
1!
b1 %
0&
#3020000
0!
#3030000
1!
b1 %
0&
#3040000
0!
#3050000
1!
b1 %
0&
#3060000
0!
#3070000
1!
b1 %
0&
#3080000
0!
#3090000
1!
b1 %
0&
#3100000
0!
#3110000
1!
b1 %
0&
#3120000
0!
#3130000
1!
b1 %
0&
#3140000
0!
#3150000
1!
b1 %
0&
#3160000
0!
#3170000
1!
b1 %
0&
#3180000
0!
#3190000
1!
b1 %
0&
#3200000
0!
#3210000
1!
b1 %
0&
#3220000
0!
#3230000
1!
b1 %
0&
#3240000
0!
#3250000
1!
b1 %
0&
#3260000
0!
#3270000
1!
b1 %
0&
#3280000
0!
#3290000
1!
b1 %
0&
#3300000
0!
#3310000
1!
b1 %
0&
#3320000
0!
#3330000
1!
b1 %
0&
#3340000
0!
#3350000
1!
b1 %
0&
#3360000
0!
#3370000
1!
b1 %
0&
#3380000
0!
#3390000
1!
b1 %
0&
#3400000
0!
#3410000
1!
b1 %
0&
#3420000
0!
#3430000
1!
b1 %
0&
#3440000
0!
#3450000
1!
b1 %
0&
#3460000
0!
#3470000
1!
b1 %
0&
#3480000
0!
#3490000
1!
b1 %
0&
#3500000
0!
#3510000
1!
b1 %
0&
#3520000
0!
#3530000
1!
b1 %
0&
#3540000
0!
#3550000
1!
b1 %
0&
#3560000
0!
#3570000
1!
b1 %
0&
#3580000
0!
#3590000
1!
b1 %
0&
#3600000
0!
#3610000
1!
b1 %
0&
#3620000
0!
#3630000
1!
b1 %
0&
#3640000
0!
#3650000
1!
b1 %
0&
#3660000
0!
#3670000
1!
b1 %
0&
#3680000
0!
#3690000
1!
b1 %
0&
#3700000
0!
#3710000
1!
b1 %
0&
#3720000
0!
#3730000
1!
b1 %
0&
#3740000
0!
#3750000
1!
b1 %
0&
#3760000
0!
#3770000
1!
b1 %
0&
#3780000
0!
#3790000
1!
b1 %
0&
#3800000
0!
#3810000
1!
b1 %
0&
#3820000
0!
#3830000
1!
b1 %
0&
#3840000
0!
#3850000
1!
b1 %
0&
#3860000
0!
#3870000
1!
b1 %
0&
#3880000
0!
#3890000
1!
b1 %
0&
#3900000
0!
#3910000
1!
b1 %
0&
#3920000
0!
#3930000
1!
b1 %
0&
#3940000
0!
#3950000
1!
b1 %
0&
#3960000
0!
#3970000
1!
b1 %
0&
#3980000
0!
#3990000
1!
b1 %
0&
#4000000
0!
#4010000
1!
0"
b1 %
0&
#4020000
0!
#4030000
1!
1#
b10 %
1&
#4040000
0!
#4050000
1!
0#
b10 %
0&
0'
#4060000
0!
#4070000
1!
0#
b10 %
0&
#4080000
0!
#4090000
1!
0#
b10 %
0&
#4100000
0!
#4110000
1!
0#
b10 %
0&
#4120000
0!
#4130000
1!
0#
b10 %
0&
#4140000
0!
#4150000
1!
0#
b10 %
0&
#4160000
0!
#4170000
1!
0#
b10 %
0&
#4180000
0!
#4190000
1!
0#
b10 %
0&
#4200000
0!
#4210000
1!
1"
0#
b10 %
0&
#4220000
0!
#4230000
1!
0#
b10 %
0&
#4240000
0!
#4250000
1!
0#
b10 %
0&
#4260000
0!
#4270000
1!
0#
b10 %
0&
#4280000
0!
#4290000
1!
0#
b10 %
0&
#4300000
0!
#4310000
1!
0"
0#
b10 %
0&
#4320000
0!
#4330000
1!
0#
b10 %
0&
#4340000
0!
#4350000
1!
0#
b10 %
0&
#4360000
0!
#4370000
1!
0#
b10 %
0&
#4380000
0!
#4390000
1!
0#
b10 %
0&
#4400000
0!
#4410000
1!
0#
b10 %
0&
#4420000
0!
#4430000
1!
0#
b10 %
0&
#4440000
0!
#4450000
1!
0#
b10 %
0&
#4460000
0!
#4470000
1!
0#
b10 %
0&
#4480000
0!
#4490000
1!
0#
b10 %
0&
#4500000
0!
#4510000
1!
0#
b10 %
0&
#4520000
0!
#4530000
1!
0#
b10 %
0&
#4540000
0!
#4550000
1!
0#
b10 %
0&
#4560000
0!
#4570000
1!
0#
b10 %
0&
#4580000
0!
#4590000
1!
0#
b10 %
0&
#4600000
0!
#4610000
1!
1"
0#
b10 %
0&
#4620000
0!
#4630000
1!
0#
b10 %
0&
#4640000
0!
#4650000
1!
0#
b10 %
0&
#4660000
0!
#4670000
1!
0#
b10 %
0&
#4680000
0!
#4690000
1!
0#
b10 %
0&
#4700000
0!
#4710000
1!
0"
0#
b10 %
0&
#4720000
0!
#4730000
1!
0#
b10 %
0&
#4740000
0!
#4750000
1!
0#
b10 %
0&
#4760000
0!
#4770000
1!
0#
b10 %
0&
#4780000
0!
#4790000
1!
0#
b10 %
0&
#4800000
0!
#4810000
1!
0#
b10 %
0&
#4820000
0!
#4830000
1!
0#
b10 %
0&
#4840000
0!
#4850000
1!
0#
b10 %
0&
#4860000
0!
#4870000
1!
0#
b10 %
0&
#4880000
0!
#4890000
1!
0#
b10 %
0&
#4900000
0!
#4910000
1!
0#
b10 %
0&
#4920000
0!
#4930000
1!
0#
b10 %
0&
#4940000
0!
#4950000
1!
0#
b10 %
0&
#4960000
0!
#4970000
1!
0#
b10 %
0&
#4980000
0!
#4990000
1!
0#
b10 %
0&
#5000000
0!
#5010000
1!
0#
b10 %
0&
#5020000
0!
#5030000
1!
0#
b10 %
0&
#5040000
0!
#5050000
1!
0#
b10 %
0&
#5060000
0!
#5070000
1!
0#
b10 %
0&
#5080000
0!
#5090000
1!
0#
b10 %
0&
#5100000
0!
#5110000
1!
0#
b10 %
0&
#5120000
0!
#5130000
1!
0#
b10 %
0&
#5140000
0!
#5150000
1!
0#
b10 %
0&
#5160000
0!
#5170000
1!
0#
b10 %
0&
#5180000
0!
#5190000
1!
0#
b10 %
0&
#5200000
0!
#5210000
1!
0#
b10 %
0&
#5220000
0!
#5230000
1!
0#
b10 %
0&
#5240000
0!
#5250000
1!
0#
b10 %
0&
#5260000
0!
#5270000
1!
0#
b10 %
0&
#5280000
0!
#5290000
1!
0#
b10 %
0&
#5300000
0!
#5310000
1!
0#
b10 %
0&
#5320000
0!
#5330000
1!
0#
b10 %
0&
#5340000
0!
#5350000
1!
0#
b10 %
0&
#5360000
0!
#5370000
1!
0#
b10 %
0&
#5380000
0!
#5390000
1!
0#
b10 %
0&
#5400000
0!
#5410000
1!
0#
b10 %
0&
#5420000
0!
#5430000
1!
0#
b10 %
0&
#5440000
0!
#5450000
1!
0#
b10 %
0&
#5460000
0!
#5470000
1!
0#
b10 %
0&
#5480000
0!
#5490000
1!
0#
b10 %
0&
#5500000
0!
#5510000
1!
0#
b10 %
0&
#5520000
0!
#5530000
1!
0#
b10 %
0&
#5540000
0!
#5550000
1!
0#
b10 %
0&
#5560000
0!
#5570000
1!
0#
b10 %
0&
#5580000
0!
#5590000
1!
0#
b10 %
0&
#5600000
0!
#5610000
1!
0#
b10 %
0&
#5620000
0!
#5630000
1!
0#
b10 %
0&
#5640000
0!
#5650000
1!
0#
b10 %
0&
#5660000
0!
#5670000
1!
0#
b10 %
0&
#5680000
0!
#5690000
1!
0#
b10 %
0&
#5700000
0!
#5710000
1!
0#
b10 %
0&
#5720000
0!
#5730000
1!
0#
b10 %
0&
#5740000
0!
#5750000
1!
0#
b10 %
0&
#5760000
0!
#5770000
1!
0#
b10 %
0&
#5780000
0!
#5790000
1!
0#
b10 %
0&
#5800000
0!
#5810000
1!
0#
b10 %
0&
#5820000
0!
#5830000
1!
0#
b10 %
0&
#5840000
0!
#5850000
1!
0#
b10 %
0&
#5860000
0!
#5870000
1!
0#
b10 %
0&
#5880000
0!
#5890000
1!
0#
b10 %
0&
#5900000
0!
#5910000
1!
0#
b10 %
0&
#5920000
0!
#5930000
1!
0#
b10 %
0&
#5940000
0!
#5950000
1!
0#
b10 %
0&
#5960000
0!
#5970000
1!
0#
b10 %
0&
#5980000
0!
#5990000
1!
0#
b10 %
0&
#6000000
0!
#6010000
1!
0#
b10 %
0&
#6020000
0!
#6030000
1!
0#
b10 %
0&
#6040000
0!
#6050000
1!
0#
b10 %
0&
#6060000
0!
#6070000
1!
0#
b10 %
0&
1'
#6080000
0!
#6090000
1!
0#
b0 %
#6100000
0!
#6110000
1!
0#
1&
#6120000
0!
#6130000
1!
0#
1&
0'
#6140000
0!
#6150000
1!
0#
1&
#6160000
0!
#6170000
1!
0#
1&
#6180000
0!
#6190000
1!
0#
1&
#6200000
0!
#6210000
1!
0#
1&
#6220000
0!
#6230000
1!
0#
1&
#6240000
0!
#6250000
1!
0#
1&
#6260000
0!
#6270000
1!
0#
1&
#6280000
0!
#6290000
1!
0#
1&
#6300000
0!
#6310000
1!
0#
1&
#6320000
0!
#6330000
1!
0#
1&
#6340000
0!
#6350000
1!
0#
1&
#6360000
0!
#6370000
1!
0#
1&
#6380000
0!
#6390000
1!
0#
1&
#6400000
0!
#6410000
1!
0#
1&
#6420000
0!
#6430000
1!
0#
1&
#6440000
0!
#6450000
1!
0#
1&
#6460000
0!
#6470000
1!
0#
1&
#6480000
0!
#6490000
1!
0#
1&
#6500000
0!
#6510000
1!
0#
1&
#6520000
0!
#6530000
1!
0#
1&
#6540000
0!
#6550000
1!
0#
1&
#6560000
0!
#6570000
1!
0#
1&
#6580000
0!
#6590000
1!
0#
1&
#6600000
0!
#6610000
1!
0#
1&
#6620000
0!
#6630000
1!
0#
1&
#6640000
0!
#6650000
1!
0#
1&
#6660000
0!
#6670000
1!
0#
1&
#6680000
0!
#6690000
1!
0#
1&
#6700000
0!
#6710000
1!
0#
1&
#6720000
0!
#6730000
1!
0#
1&
#6740000
0!
#6750000
1!
0#
1&
#6760000
0!
#6770000
1!
0#
1&
#6780000
0!
#6790000
1!
0#
1&
#6800000
0!
#6810000
1!
0#
1&
#6820000
0!
#6830000
1!
0#
1&
#6840000
0!
#6850000
1!
0#
1&
#6860000
0!
#6870000
1!
0#
1&
#6880000
0!
#6890000
1!
0#
1&
#6900000
0!
#6910000
1!
0#
1&
#6920000
0!
#6930000
1!
0#
1&
#6940000
0!
#6950000
1!
0#
1&
#6960000
0!
#6970000
1!
0#
1&
#6980000
0!
#6990000
1!
0#
1&
#7000000
0!
#7010000
1!
0#
1&
#7020000
0!
#7030000
1!
0#
1&
#7040000
0!
#7050000
1!
0#
1&
#7060000
0!
#7070000
1!
0#
1&
#7080000
0!
#7090000
1!
0#
1&
#7100000
0!
#7110000
1!
0#
1&
#7120000
0!
#7130000
1!
0#
1&
#7140000
0!
#7150000
1!
0#
1&
#7160000
0!
#7170000
1!
0#
1&
#7180000
0!
#7190000
1!
0#
1&
#7200000
0!
#7210000
1!
0#
1&
#7220000
0!
#7230000
1!
0#
1&
#7240000
0!
#7250000
1!
0#
1&
#7260000
0!
#7270000
1!
0#
1&
#7280000
0!
#7290000
1!
0#
1&
#7300000
0!
#7310000
1!
0#
1&
#7320000
0!
#7330000
1!
0#
1&
#7340000
0!
#7350000
1!
0#
1&
#7360000
0!
#7370000
1!
0#
1&
#7380000
0!
#7390000
1!
0#
1&
#7400000
0!
#7410000
1!
0#
1&
#7420000
0!
#7430000
1!
0#
1&
#7440000
0!
#7450000
1!
0#
1&
#7460000
0!
#7470000
1!
0#
1&
#7480000
0!
#7490000
1!
0#
1&
#7500000
0!
#7510000
1!
0#
1&
#7520000
0!
#7530000
1!
0#
1&
#7540000
0!
#7550000
1!
0#
1&
#7560000
0!
#7570000
1!
0#
1&
#7580000
0!
#7590000
1!
0#
1&
#7600000
0!
#7610000
1!
0#
1&
#7620000
0!
#7630000
1!
0#
1&
#7640000
0!
#7650000
1!
0#
1&
#7660000
0!
#7670000
1!
0#
1&
#7680000
0!
#7690000
1!
0#
1&
#7700000
0!
#7710000
1!
0#
1&
#7720000
0!
#7730000
1!
0#
1&
#7740000
0!
#7750000
1!
0#
1&
#7760000
0!
#7770000
1!
0#
1&
#7780000
0!
#7790000
1!
0#
1&
#7800000
0!
#7810000
1!
0#
1&
#7820000
0!
#7830000
1!
0#
1&
#7840000
0!
#7850000
1!
0#
1&
#7860000
0!
#7870000
1!
0#
1&
#7880000
0!
#7890000
1!
0#
1&
#7900000
0!
#7910000
1!
0#
1&
#7920000
0!
#7930000
1!
0#
1&
#7940000
0!
#7950000
1!
0#
1&
#7960000
0!
#7970000
1!
0#
1&
#7980000
0!
#7990000
1!
0#
1&
#8000000
0!
#8010000
1!
0#
1&
#8020000
0!
#8030000
1!
0#
1&
#8040000
0!
#8050000
1!
0#
1&
#8060000
0!
#8070000
1!
0#
1&
#8080000
0!
#8090000
1!
0#
1&
#8100000
0!
#8110000
1!
0#
1&
#8120000
0!
#8130000
1!
0#
1&
#8140000
0!
#8150000
1!
0#
1&
#8160000
0!
#8170000
1!
0#
1&
#8180000
0!
#8190000
1!
0#
1&
#8200000
0!
#8210000
1!
0#
1&
#8220000
0!
#8230000
1!
0#
1&
#8240000
0!
#8250000
1!
0#
1&
#8260000
0!
#8270000
1!
0#
1&
#8280000
0!
#8290000
1!
0#
1&
#8300000
0!
#8310000
1!
0#
1&
#8320000
0!
#8330000
1!
0#
1&
#8340000
0!
#8350000
1!
0#
1&
#8360000
0!
#8370000
1!
0#
1&
#8380000
0!
#8390000
1!
0#
1&
#8400000
0!
#8410000
1!
0#
1&
#8420000
0!
#8430000
1!
0#
1&
#8440000
0!
#8450000
1!
0#
1&
#8460000
0!
#8470000
1!
0#
1&
#8480000
0!
#8490000
1!
0#
1&
#8500000
0!
#8510000
1!
0#
1&
#8520000
0!
#8530000
1!
0#
1&
#8540000
0!
#8550000
1!
0#
1&
#8560000
0!
#8570000
1!
0#
1&
#8580000
0!
#8590000
1!
0#
1&
#8600000
0!
#8610000
1!
0#
1&
#8620000
0!
#8630000
1!
0#
1&
#8640000
0!
#8650000
1!
0#
1&
#8660000
0!
#8670000
1!
0#
1&
#8680000
0!
#8690000
1!
0#
1&
#8700000
0!
#8710000
1!
0#
1&
#8720000
0!
#8730000
1!
0#
1&
#8740000
0!
#8750000
1!
0#
1&
#8760000
0!
#8770000
1!
0#
1&
#8780000
0!
#8790000
1!
0#
1&
#8800000
0!
#8810000
1!
0#
1&
#8820000
0!
#8830000
1!
0#
1&
#8840000
0!
#8850000
1!
0#
1&
#8860000
0!
#8870000
1!
0#
1&
#8880000
0!
#8890000
1!
0#
1&
#8900000
0!
#8910000
1!
0#
1&
#8920000
0!
#8930000
1!
0#
1&
#8940000
0!
#8950000
1!
0#
1&
#8960000
0!
#8970000
1!
0#
1&
#8980000
0!
#8990000
1!
0#
1&
#9000000
0!
#9010000
1!
0#
1&
#9020000
0!
#9030000
1!
0#
1&
#9040000
0!
#9050000
1!
0#
1&
#9060000
0!
#9070000
1!
0#
1&
#9080000
0!
#9090000
1!
0#
1&
#9100000
0!
#9110000
1!
0#
1&
#9120000
0!
#9130000
1!
0#
1&
#9140000
0!
#9150000
1!
0#
1&
#9160000
0!
#9170000
1!
0#
1&
#9180000
0!
#9190000
1!
0#
1&
#9200000
0!
#9210000
1!
0#
1&
#9220000
0!
#9230000
1!
0#
1&
#9240000
0!
#9250000
1!
0#
1&
#9260000
0!
#9270000
1!
0#
1&
#9280000
0!
#9290000
1!
0#
1&
#9300000
0!
#9310000
1!
0#
1&
#9320000
0!
#9330000
1!
0#
1&
#9340000
0!
#9350000
1!
0#
1&
#9360000
0!
#9370000
1!
0#
1&
#9380000
0!
#9390000
1!
0#
1&
#9400000
0!
#9410000
1!
0#
1&
#9420000
0!
#9430000
1!
0#
1&
#9440000
0!
#9450000
1!
0#
1&
#9460000
0!
#9470000
1!
0#
1&
#9480000
0!
#9490000
1!
0#
1&
#9500000
0!
#9510000
1!
0#
1&
#9520000
0!
#9530000
1!
0#
1&
#9540000
0!
#9550000
1!
0#
1&
#9560000
0!
#9570000
1!
0#
1&
#9580000
0!
#9590000
1!
0#
1&
#9600000
0!
#9610000
1!
0#
1&
#9620000
0!
#9630000
1!
0#
1&
#9640000
0!
#9650000
1!
0#
1&
#9660000
0!
#9670000
1!
0#
1&
#9680000
0!
#9690000
1!
0#
1&
#9700000
0!
#9710000
1!
0#
1&
#9720000
0!
#9730000
1!
0#
1&
#9740000
0!
#9750000
1!
0#
1&
#9760000
0!
#9770000
1!
0#
1&
#9780000
0!
#9790000
1!
0#
1&
#9800000
0!
#9810000
1!
0#
1&
#9820000
0!
#9830000
1!
0#
1&
#9840000
0!
#9850000
1!
0#
1&
#9860000
0!
#9870000
1!
0#
1&
#9880000
0!
#9890000
1!
0#
1&
#9900000
0!
#9910000
1!
0#
1&
#9920000
0!
#9930000
1!
0#
1&
#9940000
0!
#9950000
1!
0#
1&
#9960000
0!
#9970000
1!
0#
1&
#9980000
0!
#9990000
1!
0#
1&
